Seminar 2: Introduction to Data I- Solution
…
6. Exercise (optional)

Import the dataset ip.csv, which you find in the data folder, and transform it into long format using pivot_longer() and call it ‘df_long’. Read the file with read.csv(..., check.names = FALSE) so that R does not change the date column names (e.g. 01.01.2019). The values for the last two months are missing for every country except the US, so drop these missing values when pivoting using values_drop_na = TRUE.

ip_wide <- read.csv("data/ip.csv", check.names = FALSE) # keep the date column names unchanged
df_long <- ip_wide |>
  pivot_longer(
    -country,
    names_to = "date",
    values_to = "value",
    values_drop_na = TRUE
  ) # drop the missing last two months
print(df_long)

# A tibble: 110 × 3
   country date        value
   <chr>   <chr>       <dbl>
 1 france  01.01.2019  0.973
 2 france  01.02.2019 -0.496
 3 france  01.03.2019 -0.633
 4 france  01.04.2019  0.521
 5 france  01.05.2019  1.64 
 6 france  01.06.2019 -2.24 
 7 france  01.07.2019  0.193
 8 france  01.08.2019 -0.993
 9 france  01.09.2019  0.633
10 france  01.10.2019  0.252
# ℹ 100 more rows
…
